0000.000 (1) Opened log file at time: Tue, 15 Jun 2021 15:22:28 +0000 on http://dentons.local
0000.011 (1) UpdraftPlus WordPress backup plugin (https://updraftplus.com): 1.16.56 WP: 5.7.1 PHP: 7.2.18 (apache2handler, Windows NT DESKTOP-KB39Q7T 10.0 build 19042 (Windows 10) AMD64) MySQL: 5.7.26 WPLANG: en_GB Server: Apache/2.4.39 (Win64) OpenSSL/1.1.1b PHP/7.2.18 safe_mode: 0 max_execution_time: 900 memory_limit: 300M (used: 11M | 16M) multisite: N openssl: OpenSSL 1.1.1b  26 Feb 2019 mcrypt: N LANG:  ZipArchive::addFile: Y
0000.017 (1) Free space on disk containing Updraft's temporary directory: 97124.5 MB
0000.035 (1) Requesting backup semaphore lock (509ad7d2a5eb)
0000.053 (1) [Lock option (updraft_lock_509ad7d2a5eb, wp_options) was created in the database] debug
0000.064 (1) [Lock (updraft_lock_509ad7d2a5eb, wp_options) acquired after initialising the database] info
0000.072 (1) This backup task (509ad7d2a5eb) is either complete or began over 2 days ago: ending (1623770548.1941, ) (existing jobdata keys: )
0000.163 (1) PHP event: code E_NOTICE: Undefined offset: 0 (line 395, C:\wamp64\www\swarm\dentons\wp-includes\capabilities.php)
